{"name":"step2",
"text":["Hi"],
"query": "What is 1+1?",
"answer": true,
"answer_type": "number",
"answer_value": 2,
"location": false,
"location_id": null,
"location_highlight": false,
"secret_key": "15921",
"next": null}
